{
    "actions": {
        "bizType": "order",
        "primary": {
            "items": [
                {
                    "position": 1,
                    "name_key": "action_button_watch",
                    "icon": "WATCH",
                    "url": "/alert/watch/apps/{{appCode}}/state",
                    "params": ["ord_id", "ord_ln_item_id"],
                    "task": {
                        "type": "action",
                        "url": "/alert/watch/apps/{{appCode}}",
                        "params": ["ord_id", "ord_ln_item_id"]
                    }
                },
                {
                    "position": 2,
                    "name_key": "action_button_remind",
                    "icon": "REMIND",
                    "url": "/alert/reminder/apps/{{appCode}}/state",
                    "params": ["ord_id", "ord_ln_item_id"],
                    "task": {
                        "type": "quickaction",
                        "url": "/alert/reminder/apps/{{appCode}}",
                        "deleteUrl": "/alert/reminder/apps/{{appCode}}/{{deleteId}}",
                        "params": ["ord_id", "ord_ln_item_id"]
                    }
                }
            ]
        }
    }
}
