{
  "table": {
    "infiniteScroll": true,
    "horizontalScroll" : true,
    "initialTreeViewCollapse":false,
    "treeGroupKey":"",
    "checkbox": false,
    "htmlEnable" : true,
    "tableActionsEnable" : false,
    "table_actions" : [
      {
        "action_name" : "Watch",
        "action_icon" : "",
        "action_function" : "watchFunction",
        "action_enable" : true,
        "cols" : ["suppliersku"]
      }
    ],
    "menuAction" : {
      "menuIcon" : "data:image/jpeg;base64,iVBORw0KGgoAAAANSUhEUgAAABgAAAAYCAYAAADgdz34AAAACXBIWXMAAAsTAAALEwEAmpwYAAAAAXNSR0IArs4c6QAAAARnQU1BAACxjwv8YQUAAABvSURBVHgB7dKxEYAwCAVQknOAjOAIGUVHcQKzgaNlBjdgAhCt7PhF7tLwGihCDu4+UXAk9GGtdc05X9ayqrbe+43MLQSyz08r27dVSsXKDs0Rrvx6JhB8gYgcdgW/21vfKIwSMXVFTOeLmLoipvM9M5Q5l7Up/3YAAAAASUVORK5CYII=",
      "menuEnable" : false,
      "menuFunction" : "menuFunction ",
      "cols" : ["ord_id"],
      "menuItems" : [
      {
        "name":"Edit",
        "function" : "editFunc"
      },
      {
        "name":"Delete",
        "function" : "deleteFunc"
      }
      ]
    },
    "checkboxConfig":{
      "checkboxColumn":{
        "enabled":false,
        "headerId":"ord_ln_item_id_cell_checkbox",
        "fieldName":"ord_id"
      },
      "orderColumn": {
        "enabled": false,
        "headerId": "ord_ln_item_id_checkbox_row",
        "fieldName": "ord_ln_item_id"
      }
    },
    "dateColumns": ["lst_mod_dt", "crt_dt"],
    "shouldBeScrollable": true,
    "headers": {
      "header_ids": [
        "ord_num",
        "ord_des",
        "ord_status",
        "ord_id",
        "ord_ln_item_id"
      ],
      "header_names": [
        "Order Number",
        "Order Description",
        "Status",
        "Order Id",
        "Order Lineitem Id"
      ]
    },
    "sort_by": "ord_id",
    "sort_type": "ASC",
    "groupKey": "",
    "row_id": 1,
    "row_data": {},
    "table_data": [{}],
    "link_by": "props:ord_num",
    "pagination": true,
    "filter": true,
    "table": true,
    "showOrderDetails": true,
    "dragItem": "column",
    "dragDisable" : ["ord_num"],
    "properties": [
      "Filter",
      "Sort",
      "Grouping",
      "Column Resizable",
      "Drag-n-Drop",
      "Editable"
    ],
    "operation": [
      "AddRow",
      "DeleteRow",
      "AddColumn",
      "DeleteColumn",
      "Modify-Row",
      "Modify-Cell",
      "Modify-Header"
    ],
    "themeName": "Default",
    "options": {
      "table_options": {
        "headerRowHeight": 56,
        "rowHeight": 52
      },
      "column_options": {
        "type": "string",
        "tooltip": false
      },
      "header_options": [{}]
    },
    "transformationType": "object",
    "globalSearchColumns": "ord_id,ord_ln_item_id,ord_plan_deliv_dt,crt_dt,suppliersku,ord_status,lst_mod_dt,lst_mod_by",
    "globalSearchIgnore": "EXTRA",
    "isPrint": true,
    "printMeta": {
      "printId": "printOrderStatusTracking",
      "className": "printOrderStatusTraking",
      "pageSize": "A3"
    },
    "statusCode": [
      "Received",
      "Arrived",
      "Manufactured",
      "Ordered",
      "Packed",
      "InTransit",
      "Installed",
      "Delayed"
    ]
  },
  "customise": {
    "mandatory": ["ord_id", "ord_ln_item_id", "ord_num"],
    "exclusions": ["ord_ln_item_extra", "ord_extra"],
    "extra": "#JSON_EXTRA({{extraColumn}},'{{apiName}}') EXTRA{{apiName}}",
    "globalSearchIgnore": "JSON_EXTRA",
    "editableCustomSheets":true,
    "editableCustomSheetsConfigs":{
      "title":true,
      "description":true
    }
  },
  "filters": {
    "tableviewFilters": true,
    "filters_data": [
      {
        "id": "suppliersku",
        "name": "Search",
        "type": "search"
      }
    ],
    "query_builder": {
      "time_functions": [
        "TODAY",
        "TOMORROW",
        "YESTERDAY",
        "LASTTHREEDAYS",
        "NEXTTHREEDAYS",
        "THISMONTH",
        "LASTMONTH",
        "NEXTMONTH",
        "THISWEEK",
        "NEXTWEEK",
        "LASTWEEK"
      ]
    },
    "transformationType": "object"
  },
  "pagination": {
    "recordsPerPage": 10,
    "pageNo": 1,
    "total_records_string": "Total Orders: ",
    "per_page_string": "Orders Per Page: ",
    "page_no_string": "Page ",
    "separator": " of "
  },
  "gantt": {
    "config": {
      "autoscroll": false,
      "initial_scroll": false,
      "sort": true,
      "order_branch": true,
      "open_tree_initially": true,
      "readonly": true,
      "work_time": true,
      "autosize": false,
      "grid_width": 460,
      "min_grid_column_width": 120,
      "min_column_width": 40,
      "duration_unit": "hour",
      "auto_scheduling": false,
      "auto_scheduling_strict": false,
      "auto_scheduling_compatibility": false,
      "grid_resize": true,
      "row_height": 35,
      "scale_height": 80,
      "task_height": 22,
      "parent_open": false,
      "columns": [
        {
          "name": "id",
          "label": "Order",
          "align": "left",
          "tree": true,
          "resize": "true",
          "min_width": 40,
          "width": 210
        },
        {
          "name": "supplier_code",
          "label": "Supplier",
          "align": "center",
          "resize": "true",
          "min_width": 40,
          "width": 140
        },
        {
          "name": "qty",
          "label": "Quantity",
          "align": "center",
          "resize": false,
          "min_width": 40,
          "width": 110
        }
      ],
      "scales": [
        {
          "unit": "month",
          "step": 1,
          "format": "%M"
        },
        {
          "unit": "day",
          "step": 1,
          "format": "%D"
        },
        {
          "unit": "day",
          "format": "%j"
        }
      ],
      "layout": {
        "css": "gantt_container",
        "cols": [
          {
            "rows": [
              {
                "view": "grid",
                "scrollable": false,
                "scrollY": "scrollVer"
              }
            ]
          },
          {
            "resizer": true,
            "width": 1
          },
          {
            "rows": [
              {
                "view": "timeline",
                "scrollX": "scrollHor",
                "scrollY": "scrollVer"
              },
              {
                "view": "scrollbar",
                "id": "scrollHor",
                "group": "horizontal"
              }
            ]
          },
          {
            "view": "scrollbar",
            "id": "scrollVer"
          }
        ]
      }
    },
    "columns": [
      {
        "Project": {
          "fields": ["ord_id", "ord_num", "ord_des"]
        },
        "Task": ["ord_num", "ord_ln_item_des", "supplierMark"],
        "tooltip": true,
        "name": "id"
      },
      {
        "Project": {
          "fields": ["supplier_code"]
        },
        "Task": ["supplier_code"],
        "tooltip": true,
        "name": "supplier_code"
      },
      {
        "Project": {
          "fields": [],
          "getParentData": true
        },
        "Task": ["qty", "ord_ln_item_uom"],
        "name": "qty",
        "sort": true
      }
    ],
    "tooltip": true,
    "tooltipConfig": {
      "tooltipDetach": true,
      "tooltipDetachClass": ":not(.gantt_task_row)",
      "tooltipSelector": true,
      "tooltipColumnClass": "tooltipHover",
      "tooltipSelectorClass": ".gantt_grid .tooltipHover",
      "tooltipText": {
        "Project": {
          "fields": ["ord_id", "ord_num", "ord_des"]
        },
        "Task": ["ord_num", "ord_ln_item_des", "supplierMark"]
      }
    },
    "rightSideText": true,
    "rightSideConfig": {
      "Project": {
        "fields": ["ord_id", "ord_num", "ord_des"],
        "getParentData": true
      },
      "Task": [
        "ord_num",
        "ord_ln_item_des",
        "supplierMark",
        "supplier_code",
        "qty",
        "ord_ln_item_uom"
      ]
    },
    "showTaskText": false,
    "locale": {
      "labels": {
        "section_comment": "Comments"
      }
    },
    "weekend": [0, 6],
    "requestData": {
      "startDate": "ord_plan_deliv_dt",
      "endDate": "ord_plan_deliv_dt",
      "name": "ord_des",
      "query": "",
      "globalSearch": "",
      "globalSearchColumns": "qty,ord_des,suppliersku,ord_plan_deliv_dt,ord_ln_item_des,ord_num,ord_id,supplier_code,ord_ln_item_uom",
      "columns": [
        "qty",
        "ord_des",
        "suppliersku",
        "supplier_code",
        "ord_ln_item_uom",
        "ord_plan_deliv_dt",
        "ord_ln_item_des",
        "ord_num",
        "ord_id",
        "#JSON_EXTRA(ord_ln_item_extra,'Supplier_Item_Mark') supplierMark"
      ]
    }
  },
  "calendar": {
    "requestData": {
      "columns": ["ord_num"],
      "startDate": "ord_plan_deliv_dt",
      "endDate": "ord_plan_deliv_dt",
      "name": "ord_des",
      "evType": "ord_status",
      "sectionId": "supplier_code",
      "query": "",
      "globalSearch": ""
    },
    "skin": "material",
    "xy": {
      "scale_width": 0,
      "month_scale_height": 30,
      "bar_height": 25,
      "margin_top": 0,
      "scale_height": 35,
      "nav_height": 0
    },
    "config": {
      "header": [],
      "time_step": 15,
      "fix_tab_position": false,
      "container_autoresize": false,
      "start_on_monday": true,
      "readonly": true,
      "details_on_create": false,
      "details_on_dblclick": false,
      "drag_resize": false,
      "drag_move": false,
      "drag_create": false,
      "drag_event_body": false,
      "multi_day": true,
      "full_day": true,
      "prevent_cache": true,
      "responsive_lightbox": true,
      "auto_end_date": true,
      "mark_now": true,
      "max_month_events": 2,
      "resize_month_events": false,
      "api_date": "%d-%m-%Y %h:%i",
      "xml_date": "%Y-%m-%d %h:%i",
      "hour_date": "%h:%i %A"
    },
    "events": ["onEventAdded", "onEventChanged", "onEventDeleted"],
    "enableWhitspaceClick": "true",
    "event_bar_date": ["ord_num", "section_id"],
    "event_text": ["section_id"],
    "globalSearchColumns": "ord_id,ord_ln_item_id,ord_plan_deliv_dt,ord_des",
    "isPrint": true,
    "printMeta": {
      "printId": "printCalenderOrderStatusTracking",
      "className": "printCalenderOrderStatusTracking",
      "pageSize": "A3"
    }
  },
  "actions": {
    "bizType": "order",
    "primary": {
      "items": [
        {
          "position": 1,
          "name_key": "action_button_watch",
          "icon": "WATCH",
          "url": "/alert/watch/apps/{{appCode}}/state",
          "params": ["ord_id", "ord_ln_item_id"],
          "task": {
            "type": "action",
            "url": "/alert/watch/apps/{{appCode}}",
            "params": ["ord_id", "ord_ln_item_id"]
          }
        },
        {
          "position": 2,
          "name_key": "action_button_remind",
          "icon": "REMIND",
          "url": "/alert/reminder/apps/{{appCode}}/state",
          "params": ["ord_id", "ord_ln_item_id"],
          "task": {
            "type": "quickaction",
            "url": "/alert/reminder/apps/{{appCode}}",
            "deleteUrl": "/alert/reminder/apps/{{appCode}}/{{deleteId}}",
            "params": ["ord_id", "ord_ln_item_id"]
          }
        }
      ]
    }
  },
  "transformationType": "object"
}
