{
    "orderDetails": 
        {
            "Supplier": "InfraBuild",
            "Date": "1 Decemeber 2020",
            "Description": "HR-B2-LIFT(GRID 8 TO 9)REID",
            "Status": "Installed",
            "Plan Date": "21 October 2020",
            "Manufacture Date": "21 October 2020",
            "Ship Date": "21 October 2020",
            "Delivery Date": "21 October 2020",
            "Install Date": "21 October 2020",
            "QA Date": "21 October 2020",
            "Actual Date": "21 October 2020",
            "Future Date": "21 October 2020",
            "Present Date": "21 October 2020",
            "Zone": "Area G",
            "Dock": "Bay 1"
        }
}